PS5.knit
…
# c.
FAF_df <- FAF_df |>
  rename_with(~ .x |> 
    str_to_lower() |>
    str_replace_all("\\.+", "_") |>
    str_replace_all("\\s+", "_"))

FAF_df  

## # A tibble: 127,604 × 28
##    dms_orig dms_dest sctg2 dms_mode thousand_tons_in_2017 million_dollars_in_2…¹
##    <chr>    <chr>    <chr> <chr>                    <dbl>                  <dbl>
##  1 01-Alab… 01-Alab… 01-L… 1-Truck               3114.                  4377.   
##  2 01-Alab… 01-Alab… 02-C… 1-Truck               3551.                   539.   
##  3 01-Alab… 01-Alab… 02-C… 2-Rail                 223.                    35.0  
##  4 01-Alab… 01-Alab… 02-C… 3-Water                 75.0                   10.0  
##  5 01-Alab… 01-Alab… 03-O… 1-Truck               4488.                  1258.   
##  6 01-Alab… 01-Alab… 03-O… 2-Rail                   0.274                  0.254
##  7 01-Alab… 01-Alab… 03-O… 5-Multi…                 1.57                  15.2  
##  8 01-Alab… 01-Alab… 04-A… 1-Truck               2513.                   755.   
##  9 01-Alab… 01-Alab… 04-A… 5-Multi…                 5.70                   4.47 
## 10 01-Alab… 01-Alab… 05-M… 1-Truck                600.                  1667.   
## # ℹ 127,594 more rows
## # ℹ abbreviated name: ¹​million_dollars_in_2017
## # ℹ 22 more variables: current_million_dollars_in_2017 <dbl>,
## #   `million_ton-miles_in_2017` <dbl>, thousand_tons_in_2018 <dbl>,
## #   million_dollars_in_2018 <dbl>, current_million_dollars_in_2018 <dbl>,
## #   `million_ton-miles_in_2018` <dbl>, thousand_tons_in_2019 <dbl>,
## #   million_dollars_in_2019 <dbl>, current_million_dollars_in_2019 <dbl>, …
…
